The implementation of a model of choice: the (truncated) linear ballistic accumulator.
…
# Matrix of drifts for each accumulator for each trial
nu <- matrix(NA, ncol = N_acc, nrow = nrow(single_subj))
for(a in 1:N_acc){
  nu[ ,a] <- beta_color * (single_subj$ncolor == a) + 
             beta_word * (single_subj$nword == a)
} 

single_subj %<>% bind_cols(rLBA(nrow(single_subj), nu, A, b, s, t_0)) %>% 
                  mutate(correct = ncolor == response)

single_subj

## # A tibble: 300 x 9
##    color word  condition    cond ncolor nword    RT response correct
##    <chr> <chr> <chr>       <dbl>  <dbl> <dbl> <dbl>    <int> <lgl>  
##  1 red   red   Congruent     -1.     3.    3. 0.406        3 TRUE   
##  2 blue  red   Incongruent    1.     1.    3. 0.447        3 FALSE  
##  3 green red   Incongruent    1.     2.    3. 0.524        2 TRUE   
##  4 red   red   Congruent     -1.     3.    3. 0.431        3 TRUE   
##  5 blue  red   Incongruent    1.     1.    3. 0.363        1 TRUE   
##  6 green red   Incongruent    1.     2.    3. 0.469        2 TRUE   
##  7 red   red   Congruent     -1.     3.    3. 0.396        3 TRUE   
##  8 blue  red   Incongruent    1.     1.    3. 0.359        1 TRUE   
##  9 green red   Incongruent    1.     2.    3. 0.656        2 TRUE   
## 10 red   red   Congruent     -1.     3.    3. 0.497        3 TRUE   
## # ... with 290 more rows
…
